%% LilyPond-File generated by Laborejo - http://www.laborejo.org
%% Generation Date: %$$DATE$$
%% Filename: %$$FILENAME$$

\version "2.16"
#(set-default-paper-size "a4")
#(set-global-staff-size %$$FONTSIZE$$ )
#(ly:set-option 'point-and-click #f)

\paper {
  print-all-headers = ##t
  %scoreTitleMarkup = ##f
}

\header{
    %$$GLOBALHEADER$$
}


%Definitions Area
%$$LILYPONDDEFINITIONS$$

%$$inc_tuplets.ly$$
%$$inc_lyricsextender.ly$$
%$$inc_instrumentnames.ly$$
%$$inc_bars-per-line.ly$$


\layout{
   %ragged-right = ##t
  \context { \Score
    %use the line below to insist on your layout
    %\override NonMusicalPaperColumn #'line-break-permission = ##f
    \consists #(bars-per-line-engraver '(4))

    \override Fingering #'add-stem-support = ##t
    \override StringNumber #'add-stem-support = ##t
    \override StrokeFinger #'add-stem-support = ##t
    %Dynamics
    \override Hairpin #'to-barline = ##f
    \override DynamicLineSpanner #'staff-padding = #2.0
    \override DynamicLineSpanner #'Y-extent = #'(-1.5 . 1.5)
    \override TextScript #'Y-extent = #'(-1.5 . 1.5)
    \override PaperColumn #'keep-inside-line = ##t
     %Remove engraver here and add them in context staff
    %\remove "Timing_translator"
    %\remove "Default_bar_line_engraver"
    %\override Tie #'details #'ratio = #2
  }
  \context { \Voice
    %Exchange note_heads_engraver with the completition variant which auto-ties notes on bar-breaks
    \remove "Note_heads_engraver"
    \consists "Completion_heads_engraver"
    tieWaitForNote = ##t
  }
  \context { \Staff
    \RemoveEmptyStaves
    %\override VerticalAxisGroup #'remove-first = ##t
    \override TimeSignature #'style = #'numbered
    %\consists "Timing_translator"
    %\consists "Default_bar_line_engraver"
    \override NoteHead  #'style = #'baroque  %breve and longa are squared.
  }
  \context { \Lyrics
      \consists "Bar_engraver"
      \consists "Tweak_engraver"
      \consists "Separating_line_group_engraver"
      \override BarLine #'transparent = ##t
  }
}

%$$inc_music.ly$$
