%% LilyPond-File generated by Laborejo - http://www.laborejo.org
%% Generation Date: %$$DATE$$
%% Filename: %$$FILENAME$$

\version "2.16"
#(ly:set-option 'point-and-click #f)

%Music definitions. Containers, Staff, Parts.
%$$CONTAINER$$

%$$VOICES$$

\score {<<
%How the definitions are arranged. Only staffgroups (staff prefix) and staffs, merged as voices.
%$$STRUCTURE$$
>>}

%no subtext
